\relax 
\citation{Zang08}
\citation{Wang14}
\citation{Wang07}
\citation{Iizuka13}
\citation{Iizuka13}
\citation{Iizuka15}
\citation{Iizuka13}
\citation{Iizuka15}
\citation{Iizuka13}
\citation{Iizuka15}
\@writefile{toc}{\contentsline {section}{\numberline {I}Introduction}{1}}
\newlabel{Sec:Introduction}{{I}{1}}
\citation{Masuda16}
\citation{Masuda16}
\citation{Masuda16}
\citation{Masuda16}
\citation{Masuda16}
\@writefile{lof}{\contentsline {figure}{\numberline {1}{\ignorespaces TTF variation due to manufacturing variability and aging variation.\relax }}{2}}
\providecommand*\caption@xref[2]{\@setref\relax\@undefined{#1}}
\newlabel{fig:MTTF}{{1}{2}}
\@writefile{lof}{\contentsline {figure}{\numberline {2}{\ignorespaces \leavevmode {\color  {blue}Proposed MTTF-aware design reduces power dissipation due to MTTF-aware operation and design optimization with ASA.}\relax }}{2}}
\newlabel{fig:MTTF-awareDesign}{{2}{2}}
\@writefile{toc}{\contentsline {section}{\numberline {II}Activation-aware Slack Assignment and Problem Formulation}{3}}
\newlabel{Sec:ProblemFormulation}{{II}{3}}
\@writefile{toc}{\contentsline {subsection}{\numberline {\unhbox \voidb@x \hbox {II-A}}ASA}{3}}
\newlabel{Subsec:ASA}{{\unhbox \voidb@x \hbox {II-A}}{3}}
\@writefile{lof}{\contentsline {figure}{\numberline {3}{\ignorespaces Path delay distributions (left side), and the activation probability and timing violation probability of non-intrinsic critical paths (right side) of circuits.   (a) conventional design without ASA, (b) proposed ASA.\relax }}{3}}
\newlabel{fig:ASA_Concept}{{3}{3}}
\@writefile{lof}{\contentsline {figure}{\numberline {4}{\ignorespaces \leavevmode {\color  {blue}An example of FF-based ASA. }\relax }}{3}}
\newlabel{fig:Isolation_MeritDemerit}{{4}{3}}
\@writefile{toc}{\contentsline {subsection}{\numberline {\unhbox \voidb@x \hbox {II-B}}Problem Formulation}{3}}
\newlabel{Subsec:ProblemFormulation}{{\unhbox \voidb@x \hbox {II-B}}{3}}
\citation{Iizuka15}
\citation{Masuda16}
\@writefile{lof}{\contentsline {figure}{\numberline {5}{\ignorespaces Failure probabilities of FFs are largely different.\relax }}{4}}
\newlabel{fig:FailureRate_sort_log}{{5}{4}}
\@writefile{toc}{\contentsline {section}{\numberline {III}Overview of Proposed ASA}{4}}
\newlabel{Sec:Overview}{{III}{4}}
\@writefile{toc}{\contentsline {section}{\numberline {IV}Design of Pre-ASA Circuit}{4}}
\newlabel{Sec:Pre-ASA}{{IV}{4}}
\@writefile{lof}{\contentsline {figure}{\numberline {6}{\ignorespaces Proposed design methodology with two-step procedure; (1) select most promising pre-ASA circuit in terms of power, (2) perform ASA to selected one.\relax }}{4}}
\newlabel{fig:Proposed_Overview}{{6}{4}}
\citation{Iizuka15}
\@writefile{toc}{\contentsline {subsection}{\numberline {\unhbox \voidb@x \hbox {IV-A}}Finding the MTTF-Dominant FF}{5}}
\newlabel{Subsec:MTTF-dominant_FF}{{\unhbox \voidb@x \hbox {IV-A}}{5}}
\@writefile{toc}{\contentsline {subsection}{\numberline {\unhbox \voidb@x \hbox {IV-B}}Calculating $V_{min}$ }{5}}
\newlabel{Subsec:VminEstimation}{{\unhbox \voidb@x \hbox {IV-B}}{5}}
\newlabel{Eq:MTTF_FailureProb}{{1}{5}}
\newlabel{Eq:MTTF_FailureProb2}{{2}{5}}
\citation{Masuda16}
\@writefile{lof}{\contentsline {figure}{\numberline {7}{\ignorespaces Failure probability calculation.\relax }}{6}}
\newlabel{fig:FailureRate}{{7}{6}}
\@writefile{toc}{\contentsline {section}{\numberline {V}ASA Implementation}{6}}
\newlabel{Sec:ASA_Implementation}{{V}{6}}
\@writefile{toc}{\contentsline {subsection}{\numberline {\unhbox \voidb@x \hbox {V-A}}Design Flow}{6}}
\newlabel{Subsec:ASAOverview}{{\unhbox \voidb@x \hbox {V-A}}{6}}
\@writefile{toc}{\contentsline {subsection}{\numberline {\unhbox \voidb@x \hbox {V-B}}Target FF Selection}{6}}
\newlabel{Subsec:TargetFFSelection}{{\unhbox \voidb@x \hbox {V-B}}{6}}
\@writefile{lof}{\contentsline {figure}{\numberline {8}{\ignorespaces Proposed ASA design flow. Proposed ASA first selects target FFs (Section\nobreakspace  {}\unhbox \voidb@x \hbox {V-B}\relax {}) and determines $\Delta setup_{i,j}$ for target FFs (Section\nobreakspace  {}\unhbox \voidb@x \hbox {V-C}\relax {}). Then, proposed ASA performs placement, CTS and routing ECO.\relax }}{6}}
\newlabel{fig:ASA_DesignFlow}{{8}{6}}
\@writefile{lof}{\contentsline {figure}{\numberline {9}{\ignorespaces  Largest data arrival time of each FF after ASA at typical PVTA condition in AES circuit. \relax }}{6}}
\newlabel{fig:WorstDelayComparison}{{9}{6}}
\citation{Cappello84}
\@writefile{lof}{\contentsline {figure}{\numberline {10}{\ignorespaces \leavevmode {\color  {blue}Example to select target FFs.   (a) Proposed ILP selects FF2 and FF4, and expected probability of error reduction is 0.21. (b) If we select FF1 and FF2, expected probability of error reduction is 0.08. }\relax }}{7}}
\newlabel{fig:example}{{10}{7}}
\newlabel{eq:fail}{{5}{7}}
\citation{Meinerzhagen10,Teman15}
\citation{Awano14}
\citation{Velamala13}
\citation{Awano14}
\citation{Lu13}
\citation{Lu13}
\citation{ssta1}
\citation{ssta2}
\citation{crpr1}
\citation{crpr2}
\citation{mibench}
\@writefile{lof}{\contentsline {figure}{\numberline {11}{\ignorespaces $\Delta setup_{i,j}$ determination．Proposed ASA adjusts the setup slack so that each FF satisfies $P_{fail\_FF}^{max}$.\relax }}{8}}
\newlabel{fig:ASA_strategy}{{11}{8}}
\@writefile{toc}{\contentsline {subsection}{\numberline {\unhbox \voidb@x \hbox {V-C}}$\Delta setup_{i,j}$ Determination}{8}}
\newlabel{Subsec:SlackDetermination}{{\unhbox \voidb@x \hbox {V-C}}{8}}
\@writefile{toc}{\contentsline {section}{\numberline {VI}Experimental Evaluation}{8}}
\newlabel{Sec:Evaluation}{{VI}{8}}
\@writefile{toc}{\contentsline {subsection}{\numberline {\unhbox \voidb@x \hbox {VI-A}}Evaluation Setup}{8}}
\newlabel{Subsec:EvaluationSetup}{{\unhbox \voidb@x \hbox {VI-A}}{8}}
\citation{Iizuka15}
\newlabel{Eq:MTTF_FailureProb_path}{{6}{9}}
\@writefile{lof}{\contentsline {figure}{\numberline {12}{\ignorespaces Activation probability of FFs.\relax }}{9}}
\newlabel{fig:act}{{12}{9}}
\@writefile{lof}{\contentsline {figure}{\numberline {13}{\ignorespaces Expected minimum power after ASA in AES.\relax }}{9}}
\newlabel{fig:AES_MinPower}{{13}{9}}
\@writefile{lof}{\contentsline {figure}{\numberline {14}{\ignorespaces Normalized area of ASA circuits．Y-axis is normalized by $Area_{max}$. \relax }}{9}}
\newlabel{fig:ASA_area}{{14}{9}}
\@writefile{lof}{\contentsline {figure}{\numberline {15}{\ignorespaces Normalized number of low-Vth cells in ASA circuits. Y-axis is normalized by $N_{LVth}^{max}$. \relax }}{10}}
\newlabel{fig:ASA_LVTH}{{15}{10}}
\@writefile{toc}{\contentsline {subsection}{\numberline {\unhbox \voidb@x \hbox {VI-B}}Evaluation Results}{10}}
\newlabel{Subsec:EvaluationResults}{{\unhbox \voidb@x \hbox {VI-B}}{10}}
\@writefile{toc}{\contentsline {subsubsection}{\numberline {\unhbox \voidb@x \hbox {VI-B}1}Selection of Pre-ASA Circuit and ASA Implementation}{10}}
\newlabel{Subsubsec:PowerResults}{{\unhbox \voidb@x \hbox {VI-B}2}{10}}
\@writefile{toc}{\contentsline {subsubsection}{\numberline {\unhbox \voidb@x \hbox {VI-B}2}Power Saving Effects}{10}}
\@writefile{toc}{\contentsline {subsection}{\numberline {\unhbox \voidb@x \hbox {VI-C}}Discussion}{10}}
\newlabel{Subsec:Discussion}{{\unhbox \voidb@x \hbox {VI-C}}{10}}
\newlabel{Subsubsec:Discussion_FailureProb}{{\unhbox \voidb@x \hbox {VI-C}1}{10}}
\@writefile{toc}{\contentsline {subsubsection}{\numberline {\unhbox \voidb@x \hbox {VI-C}1}Reduction of $V_{dd}$, Area, and the Number of Low-Vth Cells}{10}}
\citation{Najm93}
\@writefile{lof}{\contentsline {figure}{\numberline {16}{\ignorespaces \leavevmode {\color  {blue}Trade-off curves between clock period and average power. (a) OpenRISC, (b) AES. }\relax }}{11}}
\newlabel{fig:PowerFreq}{{16}{11}}
\newlabel{Subsubsec:Discussion_ASA_TargetFF}{{\unhbox \voidb@x \hbox {VI-C}2}{11}}
\@writefile{toc}{\contentsline {subsubsection}{\numberline {\unhbox \voidb@x \hbox {VI-C}2}Effectiveness of FF Selection for ASA}{11}}
\@writefile{lof}{\contentsline {figure}{\numberline {17}{\ignorespaces \leavevmode {\color  {blue}$V_{dd}$ reduction by proposed MTTF-aware design. (a) OpenRISC, (b) AES.}\relax }}{11}}
\newlabel{fig:OpenRISC_AES_Vdd}{{17}{11}}
\citation{Das06}
\citation{Bowman11}
\citation{Fuketa12}
\citation{Masuda16}
\@writefile{lof}{\contentsline {figure}{\numberline {18}{\ignorespaces Area of conventional and proposed ASA circuits. Y-axis is normalized by $Area_{max}$. Proposed ASA reduces area from pre-ASA circuits. (a) OpenRISC, (b) AES.\relax }}{12}}
\newlabel{fig:AreaComparison}{{18}{12}}
\@writefile{lof}{\contentsline {figure}{\numberline {19}{\ignorespaces The number of low-Vth cells of the conventional and proposed ASA circuits. Y-axis is normalized by $N_{LVth}^{max}$. Proposed ASA reduces the number of low-Vth cells from pre-ASA circuits. (a) OpenRISC, (b) AES. \relax }}{12}}
\newlabel{fig:VTLComparison}{{19}{12}}
\@writefile{lof}{\contentsline {figure}{\numberline {20}{\ignorespaces Achieved $V_{dd}$ reduction. (a) OpenRISC, (b) AES.\relax }}{12}}
\newlabel{fig:VddReductionCompare}{{20}{12}}
\@writefile{lof}{\contentsline {figure}{\numberline {21}{\ignorespaces \leavevmode {\color  {blue}MTTF comparison. Proposed FF selection improves MTTF significantly compared with {\sf  C1}, and {\sf  C2}. (a) OpenRISC, (b) AES.}\relax }}{12}}
\newlabel{fig:MTTFCompare}{{21}{12}}
\newlabel{Subsubsec:Discussion_ASA_Slack}{{\unhbox \voidb@x \hbox {VI-C}3}{12}}
\@writefile{toc}{\contentsline {subsubsection}{\numberline {\unhbox \voidb@x \hbox {VI-C}3}Effectiveness of Slack Determination}{12}}
\bibcite{Zang08}{1}
\bibcite{Wang14}{2}
\bibcite{Wang07}{3}
\bibcite{Iizuka13}{4}
\bibcite{Iizuka15}{5}
\bibcite{Masuda16}{6}
\bibcite{Cappello84}{7}
\bibcite{Meinerzhagen10}{8}
\bibcite{Teman15}{9}
\bibcite{Awano14}{10}
\bibcite{Velamala13}{11}
\bibcite{Lu13}{12}
\bibcite{ssta1}{13}
\bibcite{ssta2}{14}
\bibcite{crpr1}{15}
\bibcite{crpr2}{16}
\bibcite{mibench}{17}
\bibcite{Najm93}{18}
\bibcite{Das06}{19}
\bibcite{Bowman11}{20}
\bibcite{Fuketa12}{21}
\@writefile{lof}{\contentsline {figure}{\numberline {22}{\ignorespaces Comparison of (a) area and (b) the number of low-Vth cells in OpenRISC. Y-axis is normalized by $Area_{max}$ in (a) and by $N_{LVth}^{max}$ in (b). \relax }}{13}}
\newlabel{fig:Comparison_SlackDetermination}{{22}{13}}
\@writefile{toc}{\contentsline {section}{\numberline {VII}Conclusion}{13}}
\newlabel{Sec:Conclusion}{{VII}{13}}
\@writefile{toc}{\contentsline {section}{References}{13}}
\citation{Masuda16}
\citation{Masuda16}
\citation{Masuda16}
\citation{Masuda16}
\citation{Masuda16}
\@writefile{toc}{\contentsline {section}{Biographies}{14}}
\@writefile{toc}{\contentsline {subsection}{Yutaka Masuda}{14}}
\@writefile{toc}{\contentsline {subsection}{Takao Onoye}{14}}
\@writefile{toc}{\contentsline {subsection}{Masanori Hashimoto}{14}}
\citation{Awano14}
\citation{Masuda16}
\citation{Cappello84}
\newlabel{eq:fail_sensitivity}{{7}{16}}
\citation{Wang07}
\@writefile{lof}{\contentsline {figure}{\numberline {23}{\ignorespaces Consistency of selected FFs between two ILP methods with and without considering intrinsic delay variation sensitivity of gates (AES).\relax }}{17}}
\newlabel{fig:ConsistentNumAES}{{23}{17}}
\citation{Velamala13}
\citation{Awano14}
\citation{Awano14}
\citation{Awano14}
\citation{Lu13}
\citation{Lu13}
\citation{Lu13}
\citation{Lu13}
